<?xml version="1.0" encoding="UTF-8" standalone="no"?>
<svg width="46px" height="45px" viewBox="0 0 46 45" version="1.1" xmlns="http://www.w3.org/2000/svg" xmlns:xlink="http://www.w3.org/1999/xlink">
    <!-- Generator: Sketch 3.7.2 (28276) - http://www.bohemiancoding.com/sketch -->
    <title>Page 1</title>
    <desc>Created with Sketch.</desc>
    <defs></defs>
    <g id="Page-1" stroke="none" stroke-width="1" fill="none" fill-rule="evenodd">
        <g id="The-Facebook-Signin" transform="translate(-977.000000, -961.000000)" fill="#DD4F41">
            <path d="M1018.62731,961.060195 L980.812689,961.060195 C978.895124,961.060195 977.333333,962.621985 977.333333,964.53955 L977.333333,1002.35417 C977.333333,1004.27174 978.895124,1005.83353 980.812689,1005.83353 L1018.62972,1005.83353 C1020.54488,1005.83353 1022.10667,1004.27174 1022.10667,1002.35417 L1022.10667,964.53955 C1022.10667,962.621985 1020.54488,961.060195 1018.62731,961.060195 L1018.62731,961.060195 Z M1002.32017,1003.57225 L1002.32017,987.064908 L996.780337,987.064908 L996.780337,982.994605 L1002.32017,982.994605 L1002.32017,977.094174 C1002.32017,974.762342 1002.9871,972.861058 1004.26366,971.598963 C1005.49079,970.385711 1007.2974,969.744714 1009.45074,969.744714 C1010.96308,969.744714 1012.2698,969.82009 1013.28768,969.891245 L1013.28768,973.473714 L1010.97454,973.473714 C1006.66424,973.473714 1006.6172,976.675083 1006.6172,977.727935 L1006.6172,982.994605 L1012.86376,982.994605 L1012.32889,987.064908 L1006.6172,987.064908 L1006.6172,1003.57225 L1002.32017,1003.57225 Z M1019.84539,1002.35417 C1019.84539,1003.02592 1019.29906,1003.57225 1018.62731,1003.57225 L1008.87848,1003.57225 L1008.87848,989.326188 L1014.3146,989.326188 L1015.43378,980.733326 L1008.87848,980.733326 L1008.87848,977.727935 C1008.87848,976.948246 1009.00511,976.460412 1009.22702,976.196898 C1009.48571,975.89057 1010.10078,975.734994 1010.9866,975.734994 L1015.54896,975.732582 L1015.54896,967.874786 L1014.54314,967.74514 C1014.02938,967.677 1011.98036,967.483434 1009.43144,967.483434 C1006.67087,967.483434 1004.33904,968.35056 1002.67836,969.99255 C1000.9634,971.688208 1000.05889,974.14245 1000.05889,977.094174 L1000.05889,980.733326 L994.519057,980.733326 L994.519057,989.326188 L1000.05889,989.326188 L1000.05889,1003.57225 L980.812689,1003.57225 C980.140938,1003.57225 979.594613,1003.02592 979.594613,1002.35417 L979.594613,964.53955 C979.594613,963.867799 980.140938,963.321474 980.812689,963.321474 L1018.62731,963.321474 C1019.29906,963.321474 1019.84539,963.867799 1019.84539,964.53955 L1019.84539,1002.35417 Z" id="Page-1"></path>
        </g>
    </g>
</svg>