<?xml version="1.0" encoding="UTF-8" standalone="no"?>
<svg width="172px" height="151px" viewBox="0 0 172 151" version="1.1" xmlns="http://www.w3.org/2000/svg" xmlns:xlink="http://www.w3.org/1999/xlink">
    <!-- Generator: Sketch 3.7.2 (28276) - http://www.bohemiancoding.com/sketch -->
    <title>XMLID_3_</title>
    <desc>Created with Sketch.</desc>
    <defs></defs>
    <g id="Page-1" stroke="none" stroke-width="1" fill="none" fill-rule="evenodd">
        <g id="Loading-Screen2" transform="translate(-634.000000, -436.000000)">
            <g id="FlickingFluke_PlayButton" transform="translate(720.000000, 511.824742) rotate(-270.000000) translate(-720.000000, -511.824742) translate(645.000000, 426.000000)">
                <g id="XMLID_3_" transform="translate(0.000000, -0.000000)">
                    <polygon id="Shape" fill="#DD4F41" points="149.830508 85.6556295 48.9830508 100.875781 48.9830508 70.3509217"></polygon>
                    <polygon id="Shape" stroke="#DD4F41" fill="#FFFFFF" points="148.305085 79.144787 48.9830508 64.2628612 48.9830508 34.0762277"></polygon>
                    <polygon id="Shape" stroke="#DD4F41" fill="#FFFFFF" points="148.305085 92.0819156 48.9830508 137.150475 48.9830508 107.048398"></polygon>
                    <polygon id="Shape" fill="#DD4F41" points="134.152542 65.3620944 48.9830508 27.2271596 48.9830508 5.41160936"></polygon>
                    <polygon id="Shape" fill="#DD4F41" points="134.152542 105.864608 48.9830508 165.815093 48.9830508 144.084099"></polygon>
                    <polygon id="Shape" stroke="#DD4F41" fill="#FFFFFF" points="40.9322034 144.845107 40.9322034 171.142146 3.38983051 142.562084 19.1525424 128.441166"></polygon>
                    <polygon id="Shape" fill="#DD4F41" points="40.9322034 108.570413 40.9322034 136.389467 24.1525424 123.790564"></polygon>
                    <polygon id="Shape" fill="#DD4F41" points="40.9322034 71.8729369 40.9322034 99.3537657 26.1864407 85.6556295"></polygon>
                    <polygon id="Shape" stroke="#DD4F41" fill="#FFFFFF" points="40.9322034 34.8372353 40.9322034 62.7408461 24.1525424 47.4361383"></polygon>
                    <polygon id="Shape" fill="#DD4F41" points="40.9322034 0.507338378 40.9322034 26.466152 19.1525424 42.8700929 3.38983051 28.7491747"></polygon>
                    <polygon id="Shape" fill="#DD4F41" points="18.559322 51.6639582 35.8474576 67.3068915 20.6779661 80.6668021 2.37288136 64.2628612"></polygon>
                    <polygon id="Shape" fill="#DD4F41" points="20.6779661 90.2216749 35.8474576 103.919811 18.559322 119.647301 2.37288136 107.048398"></polygon>
                    <polygon id="Shape" stroke="#DD4F41" fill="#FFFFFF" points="15.5932203 85.6556295 0.338983051 99.3537657 0.338983051 72.2957189"></polygon>
                    <polygon id="Shape" fill="#DD4F41" points="0.338983051 35.2600173 13.559322 47.0979128 0.338983051 56.9910111"></polygon>
                    <polygon id="Shape" fill="#DD4F41" points="13.559322 124.213346 0.338983051 136.051242 0.338983051 114.235691"></polygon>
                </g>
            </g>
        </g>
    </g>
</svg>