<?xml version="1.0" encoding="UTF-8" standalone="no"?>
<svg width="106px" height="60px" viewBox="0 0 106 60" version="1.1" xmlns="http://www.w3.org/2000/svg" xmlns:xlink="http://www.w3.org/1999/xlink">
    <!-- Generator: Sketch 3.7.2 (28276) - http://www.bohemiancoding.com/sketch -->
    <title>SignIn_text</title>
    <desc>Created with Sketch.</desc>
    <defs></defs>
    <g id="Page-1" stroke="none" stroke-width="1" fill="none" fill-rule="evenodd">
        <g id="The-Find" transform="translate(-250.000000, -540.000000)">
            <g id="SignIn_text" transform="translate(250.000000, 537.000000)">
                <text id="For-better-flicks" transform="translate(53.429598, 26.868474) rotate(-15.000000) translate(-53.429598, -26.868474) " font-family="ShadowsIntoLightTwo-Regular, Shadows Into Light Two" font-size="16" font-weight="normal" line-spacing="14" fill="#DD4F41">
                    <tspan x="1.86649657" y="30.8684741">For better flicks</tspan>
                    <tspan x="1.86649657" y="44.8684741">flukin’ sign in</tspan>
                </text>
                <g id="Page-1" transform="translate(90.000000, 23.000000)">
                    <path d="M0.489130435,1.17744262 C0.489130435,1.17744262 14.6602174,-3.19436066 14.6602174,10.1394098 C14.6602174,14.2056393 12.8028261,24.6908852 9.31043478,33.4895738" id="Stroke-1" stroke="#DD4F41" stroke-width="1.5" stroke-linecap="round"></path>
                    <polygon id="Fill-3" fill="#DD4F41" points="6.33065217 39.7445246 6.83217391 29.1851803 9.46304348 32.9779672 14.0426087 32.5596066"></polygon>
                </g>
            </g>
        </g>
    </g>
</svg>